fmi2: introductionPJA • fmi2
…
Place name for which to provide data

FMISID numeric FMI observation station identifier

GEOID numeric geoid of the location

WMO code of the location

We’ll start off by using the unique FMISID identifiers assigned to the FMI observation stations. The online table is also available in fmi2 using the function fmi_stations():

station_data <- fmi2::fmi_stations() 
#> Station list downloaded from http://en.ilmatieteenlaitos.fi/observation-stations

station_data
#> # A tibble: 457 x 9
#>    Name            FMISID  LPNN   WMO   Lat   Lon Elevation Groups       Started
#>    <chr>            <int> <int> <int> <dbl> <dbl>     <int> <chr>          <int>
#>  1 Äänekoski Hiski 103151    NA    NA  62.6  25.7       110 Air quality~    2004
#>  2 Äänekoski Kala~ 101541  3405    NA  62.9  25.9       107 Precipitati~    1956
#>  3 Ähtäri Inha     101520  3301  2924  62.6  24.1       161 Weather         1912
#>  4 Alajärvi Möksy  101533  3314  2787  63.1  24.3       171 Weather         1957
#>  5 Alavus Sulkava~ 101305  2213    NA  62.4  23.6       124 Precipitati~    1942
#>  6 Asikkala Pulkk~ 101185  1434  2727  61.3  25.5        79 Weather         1991
#>  7 Bay of Bothnia~ 137228    NA    NA  64.7  23.2         0 Buoy            2012
#>  8 Enonkoski Sima~ 101446  2806    NA  62.1  29.0        95 Precipitati~    1937
#>  9 Enontekiö airp~ 101976  8208  2802  68.4  23.4       308 Weather         1999
#> 10 Enontekiö Kaar~ 101968  8102    NA  68.4  22.5       320 Precipitati~    1953
#> # ... with 447 more rows

Some examples of how to find the station of interest. First by partial name match and partial match to available data Group. We for a station in Helsinki with precipitation data.

station_data %>% 
  dplyr::filter(grepl("Helsinki", Name) & grepl("Precipitation", Groups))
#> # A tibble: 1 x 9
#>   Name       FMISID  LPNN   WMO   Lat   Lon Elevation Groups             Started
#>   <chr>       <int> <int> <int> <dbl> <dbl>     <int> <chr>                <int>
#> 1 Helsinki ~ 101004   339  2998  60.2  25.0        24 Air quality, Prec~    2005

Stations with WMO code assigned.

station_data %>% 
  dplyr::filter(!is.na(WMO))
#> # A tibble: 209 x 9
#>    Name            FMISID  LPNN   WMO   Lat   Lon Elevation Groups       Started
#>    <chr>            <int> <int> <int> <dbl> <dbl>     <int> <chr>          <int>
#>  1 Ähtäri Inha     101520  3301  2924  62.6  24.1       161 Weather         1912
#>  2 Alajärvi Möksy  101533  3314  2787  63.1  24.3       171 Weather         1957
#>  3 Asikkala Pulkk~ 101185  1434  2727  61.3  25.5        79 Weather         1991
#>  4 Enontekiö airp~ 101976  8208  2802  68.4  23.4       308 Weather         1999
#>  5 Enontekiö Kilp~ 102016  9003  2801  69.0  20.8       480 Precipitati~    1978
#>  6 Enontekiö Kilp~ 102017  9004  2701  69.0  20.8      1002 Weather         1991
#>  7 Enontekiö Näkk~ 102019  9201  2726  68.6  23.6       374 Weather         1960
#>  8 Espoo Kivenlah~ 101000   334  2838  60.2  24.6        44 Mast            1989
#>  9 Espoo Nuuksio   852678   344  2986  60.3  24.6        90 Weather         2014
#> 10 Espoo Tapiola   874863   342  2985  60.2  24.8         6 Weather         2013
#> # ... with 199 more rows
Find longest series.

station_data %>% 
  dplyr::arrange(Started) %>% 
  dplyr::slice(1)
#> # A tibble: 1 x 9
#>   Name                FMISID  LPNN   WMO   Lat   Lon Elevation Groups  Started
#>   <chr>                <int> <int> <int> <dbl> <dbl>     <int> <chr>     <int>
#> 1 Helsinki Kaisaniemi 100971   304  2978  60.2  24.9         3 Weather    1844

Arrange stations from North to South.

station_data %>% 
  dplyr::arrange(-Lat)
#> # A tibble: 457 x 9
#>    Name            FMISID  LPNN   WMO   Lat   Lon Elevation Groups       Started
#>    <chr>            <int> <int> <int> <dbl> <dbl>     <int> <chr>          <int>
#>  1 Utsjoki Nuorgam 102036  9604  2825  70.1  27.9        22 Weather         1929
#>  2 Utsjoki Kevo    102035  9603  2805  69.8  27.0       107 Air quality~    1962
#>  3 Utsjoki Kevo K~ 126737  9618  2890  69.8  27.0        76 Weather         2010
#>  4 Inari Kirakkaj~ 102055  9708  2858  69.6  28.9       106 Weather         2009
#>  5 Inari Kaamanen  102047  9616  2702  69.1  27.3       156 Weather         2008
#>  6 Inari Väylä     102042  9611  2827  69.1  27.5       123 Weather         1990
#>  7 Enontekiö Kilp~ 102016  9003  2801  69.0  20.8       480 Precipitati~    1978
#>  8 Inari Seitalaa~ 129963  9617  2888  69.0  27.8       120 Weather         2011
#>  9 Enontekiö Kilp~ 102017  9004  2701  69.0  20.8      1002 Weather         1991
#> 10 Inari parish    102046  9615    NA  68.9  27.0       127 Precipitati~    2003
#> # ... with 447 more rows
…
obs_weather_daily() returns data in so called long (or melted) format meaning that all variable (i.e. parameter) names are contained in column variable and corresponding values in value column. You can transform the data into a wide format using tidyr:

wide_data <- tulliniemi_data %>% 
  tidyr::spread(variable, value) %>% 
  # Let's convert the sf object into a regular tibble
  sf::st_set_geometry(NULL) %>%
  tibble::as_tibble()

class(wide_data)
#> [1] "tbl_df"     "tbl"        "data.frame"
wide_data
#> # A tibble: 181 x 7
#>    time                rrday  snow  tday TG_PT12H_min  tmax  tmin
#>    <dttm>              <dbl> <dbl> <dbl>        <dbl> <dbl> <dbl>
#>  1 2019-01-01 00:00:00    NA    NA   3.2           NA   5     1.2
#>  2 2019-01-02 00:00:00    NA    NA  -2.8           NA   1.5  -4.3
#>  3 2019-01-03 00:00:00    NA    NA  -6             NA  -4.1  -7.6
#>  4 2019-01-04 00:00:00    NA    NA   1.3           NA   2.7  -7.4
#>  5 2019-01-05 00:00:00    NA    NA  -4.3           NA   0.6  -5.8
#>  6 2019-01-06 00:00:00    NA    NA  -1.1           NA   2.2  -6.5
#>  7 2019-01-07 00:00:00    NA    NA   2.4           NA   3     1.6
#>  8 2019-01-08 00:00:00    NA    NA   1.6           NA   2.9   0.5
#>  9 2019-01-09 00:00:00    NA    NA  -1.7           NA   0.6  -3.7
#> 10 2019-01-10 00:00:00    NA    NA  -2.7           NA   0    -5.6
#> # ... with 171 more rows
…
tulliniemi_data_hour %>% 
  tidyr::spread(variable, value) %>% 
  # Let's convert the sf object into a regular tibble
  sf::st_set_geometry(NULL) %>%
  tibble::as_tibble()
#> # A tibble: 25 x 13
#>    time                PA_PT1H_AVG PRA_PT1H_ACC PRI_PT1H_MAX RH_PT1H_AVG
#>    <dttm>                    <dbl>        <dbl>        <dbl>       <dbl>
#>  1 2019-06-21 00:00:00       1008.           NA           NA          88
#>  2 2019-06-21 01:00:00       1008            NA           NA          90
#>  3 2019-06-21 02:00:00       1008            NA           NA          94
#>  4 2019-06-21 03:00:00       1008.           NA           NA          96
#>  5 2019-06-21 04:00:00       1008.           NA           NA          96
#>  6 2019-06-21 05:00:00       1008.           NA           NA          96
#>  7 2019-06-21 06:00:00       1008.           NA           NA          95
#>  8 2019-06-21 07:00:00       1008.           NA           NA          94
#>  9 2019-06-21 08:00:00       1009.           NA           NA          94
#> 10 2019-06-21 09:00:00       1009.           NA           NA          87
#> # ... with 15 more rows, and 8 more variables: TA_PT1H_AVG <dbl>,
#> #   TA_PT1H_MAX <dbl>, TA_PT1H_MIN <dbl>, WAWA_PT1H_RANK <dbl>,
#> #   WD_PT1H_AVG <dbl>, WS_PT1H_AVG <dbl>, WS_PT1H_MAX <dbl>, WS_PT1H_MIN <dbl>
…
wide_sun_data <- kumpula_sun_data %>% 
  tidyr::spread(variable, value) %>% 
  # Let's convert the sf object into a regular tibble
  sf::st_set_geometry(NULL) %>%
  tibble::as_tibble()

wide_sun_data
#> # A tibble: 1,441 x 10
#>    time                DIFF_1MIN DIR_1MIN GLOB_1MIN LWIN_1MIN LWOUT_1MIN
#>    <dttm>                  <dbl>    <dbl>     <dbl>     <dbl>      <dbl>
#>  1 2019-01-01 00:00:00      -1.2      0.9      -1.7      316.         NA
#>  2 2019-01-01 00:01:00      -1.4      0.9      -1.6      316.         NA
#>  3 2019-01-01 00:02:00      -1.3      0.8      -1.6      317.         NA
#>  4 2019-01-01 00:03:00      -1.2      0.9      -1.5      316.         NA
#>  5 2019-01-01 00:04:00      -1.2      1        -1.6      317.         NA
#>  6 2019-01-01 00:05:00      -1.4      0.9      -1.6      316.         NA
#>  7 2019-01-01 00:06:00      -1.4      1.1      -1.8      317.         NA
#>  8 2019-01-01 00:07:00      -1.4      0.9      -1.7      317.         NA
#>  9 2019-01-01 00:08:00      -1.4      0.8      -1.7      317.         NA
#> 10 2019-01-01 00:09:00      -1.7      0.4      -1.9      317.         NA
#> # ... with 1,431 more rows, and 4 more variables: NET_1MIN <dbl>,
#> #   REFL_1MIN <dbl>, SUND_1MIN <dbl>, UVB_U <dbl>
…
